20

6
Alan Russel
Olivia Tucker
Rachel Norris
Lydia Stevens
Penny McAfee
Tracy Kelce
4 5 6 2 1 3
1 3 6 2 5 4
3 2 5 4 1 6
3 4 2 6 1 5
3 6 1 4 2 5
6 2 4 3 5 1

1
Rachel Herbert
1
1
1
1
1
1
1
1
1
1
1
1
1

1
Chuck Ekler
1
1
1

3
Gary Cross
Frank Russel
Justin Blanton
2 1 3
3 2 1
2 3 1
2 1 3
2 1 3
3 1 2
1 3 2
1 2 3
2 3 1
3 2 1
1 2 3
1 2 3
1 2 3
1 3 2
3 2 1
2 3 1
2 1 3
1 2 3
2 3 1
2 1 3

2
Sonia Russel
Gary Norris
1 2
1 2
1 2
2 1
2 1
1 2
2 1
1 2
2 1
1 2
2 1
2 1
2 1

3
Lydia Stevens
Dean Peters
Tracy Ford
3 2 1

4
Gary Kelce
Olivia James
Rachel Blanton
Quin Ekler
1 3 4 2
1 4 3 2
2 4 1 3
1 2 4 3
3 1 4 2
4 3 1 2
1 2 4 3
3 4 2 1
1 2 3 4
4 1 3 2

4
Frank Cross
Alan Russel
Justin Ford
Olivia Garvin
4 3 2 1
4 2 1 3
2 3 1 4
1 2 4 3

1
Lydia Tucker
1
1
1
1
1
1
1
1
1
1
1

2
Dean Ekler
Penny Stevens
2 1
2 1
1 2
1 2
2 1
2 1
2 1
2 1
2 1
2 1

1
Sonia Cross
1
1
1
1
1
1
1

3
Frank Norris
Chuck Peters
Quin Ekler
3 1 2
1 2 3
1 3 2
2 3 1
3 1 2

5
Gary McAfee
Bob Tucker
Quin Kelce
Nora Ekler
Alan Long
4 5 2 3 1
5 2 4 3 1
4 1 2 3 5
2 4 5 1 3
5 1 3 2 4
5 2 4 1 3
1 5 4 3 2
1 4 5 2 3
2 4 1 5 3

2
Ernie Arnet
Kasey McAfee
1 2
1 2
1 2

2
Olivia Arnet
Bob Tucker
1 2
2 1
2 1
2 1
2 1
1 2
2 1
1 2
1 2
1 2
1 2
2 1
2 1
2 1
2 1
2 1
1 2
2 1
1 2
1 2

3
Chuck Ford
Ernie Arnet
Olivia Ekler
2 3 1
2 3 1
1 2 3
2 1 3
2 1 3
3 2 1
3 1 2
2 1 3
2 3 1
3 1 2
2 1 3
1 3 2
3 1 2
3 2 1
3 1 2
3 2 1
3 2 1
2 1 3
1 3 2
2 1 3

2
Chuck Queens
Frank Stevens
2 1

2
Marie Tucker
Chuck Irvin
1 2
2 1
1 2
2 1
1 2
1 2
2 1
2 1

6
Chuck Irvin
Penny Queens
Marie Peters
Tracy Long
Hector Cross
Justin Arnet
1 6 2 5 4 3
6 3 5 4 2 1
6 5 2 1 3 4
6 1 5 3 4 2

4
Justin Norris
Alan Ford
Olivia Arnet
Chuck Peters
4 2 3 1
4 1 2 3
2 1 3 4
2 3 1 4
3 4 2 1
1 4 2 3
3 4 2 1
3 2 4 1
4 2 3 1
2 3 4 1
4 3 2 1
2 1 4 3
