20

16
N"
T'BGE\2Ex
<1utJ
B{~]ZkMlBY
qil\Mj
?[iV&6C9I
!LXP
&t2z[
iBcs.N
BCM(O
#[p5noKG`S
5)ucu-&"W
e
r.iF5Ll
e/!.N(n'
E>.$@
11 6 1 12 16 10 2 13 14 15 4 5 9 3 7 8

5
{Fng|=mt$
{c6EZG
=,@$-
dNZGR79U
78PYqU9b4
3 1 5 2 4
1 5 2 4 3

7
8+SgQ|r_\
u=XKzF-
u>Up,o#d
$+v05^s<5
A`uRkk8YOF
DGN8f8X24S
i"w6FTB
1 7 5 2 3 6 4

12
RM6$`xa!~A
f
 P5Eis03
[E{X%{Y0
> th.tG
T;}
K\j"m[
 v'+
s=Z
GB7oK(rL(U
~nN?
7J|?h
12 1 2 4 3 5 6 8 9 7 10 11
3 6 1 8 5 11 10 12 2 7 4 9
1 5 10 2 3 11 12 4 7 6 9 8
1 2 3 4 7 10 9 12 11 8 6 5
2 5 1 4 10 3 12 11 6 9 8 7
1 2 4 3 11 10 12 9 5 8 7 6
1 3 10 4 8 11 5 2 9 12 7 6

1
ShCH7?E-SA
1

5
d^;)Uz%bh
B=!o3\ob`
dx&
~12a
|Hz
1 4 3 2 5
2 5 1 4 3
1 4 3 5 2

16
$7Tf
AwI3K?O
.#C<~-y)
#H(
"yn_r~ANh
bBkX'
:kn<TE
lO$l,.
;P
=3;
0W+e%.f
}
P03Ho
PZA(fcMR-
DEBVK"&M%
/*zaH?j
3 11 10 4 1 2 5 12 14 13 6 7 9 15 8 16
14 4 3 2 6 9 16 7 1 5 10 15 8 13 11 12

19
HWj_Tz
+>#b
`W
hn]*2u
d_KWJ/
{ 
jA>8EF/Pg`
o
F>Z\xl*wZ
,;^
AqFb
}
!*Af+
/2O
G
>d&d\v+Dy
.
p$
Qj
3 2 10 11 14 1 8 7 15 12 9 13 6 4 19 18 5 17 16

8
d
oiKus*B
Q
;u"hs:6^n7
7(dJ9oY!U
*!^lvP`x78
9[~h&}HV
Uifu
1 2 3 8 4 5 6 7
3 1 2 5 4 6 8 7
1 2 5 8 4 7 6 3

10
2"l-
WW
e|e[4F{Srg
F?j.:Ky
ULa
TG2
Ye%vWn0
!^{dC?j
-
a
10 2 3 1 7 6 4 8 5 9

1
HI,RE=gV+1
1
1
1

8
?O}=PH
1}^BAvnPb
"HPw7uS
G/7s5[2KV
qXQ17pfrO{
IEm
X sr8M!
1L
1 5 3 7 4 6 2 8
1 4 3 2 5 6 7 8

6
Ol
#jVs&
J|G
].zxR|
6d)3pQ
6i~1PH/
2 4 1 3 5 6
1 2 3 4 5 6

11
YU7
9CTcJ6S
Tg
&+6*q;`7
n63]*
r[
[J(+lO,)%^
'*'7tw4y',
:!h0'0N
2(1
rNi0@kc!(
2 10 6 1 3 11 4 7 5 9 8
3 1 4 2 6 5 11 10 7 9 8
6 10 3 5 11 1 2 8 9 7 4

18
kl:
Kt(O
"R2C3.rD0
SK)LAg
/K7 RD_
8gzs;Vnz
s<.
b
+LR@%
} mAd<,|S=
FB
We:f#Q8h
yUJA]$
<vUKRa+EK1
+4l6ucp`[5
W|Kh\s*iD
z`5"SQ(cZ\
bGN|dK
12 1 2 3 11 10 13 15 7 4 5 6 14 8 17 9 18 16

20
8MT<ol_
bv
!
Ht_{+SW
W;.T|M\Lp
 1KRq/%@y
7+
hw
n7
|X+&
kiZQpFl>PJ
WS7s
"
gwt%G6%ss
1M-(
zYmq-
z5
dXa
6};
9T$/!l1X=
4 2 8 3 1 9 5 20 19 10 18 7 17 13 11 16 6 12 15 14

20
cCu*t[2d;
3ISHj=c~B
,KG
gd:kLX
j5&lVX&i
Zr596oHH
d^'>W
S]
zfR}"Jo[(
l_1M$HXRx
"
;:
'(HtCS
k.L[/lFW/J
T%/
#hhGCGocp
}^`IV
:wo=q}
b
?7-24
10 12 3 11 2 13 1 14 4 15 20 19 16 5 18 17 6 7 8 9

15
`dULemW\Iq
`zm}B
9Ev
>O!HyE
)
wLc`bGi.s
I\)'n#:
KD|0a@Ty
E^?1
U#p>V/8~E
(#rO4fn);<
.^4Q
!":GV#@"
/Q[::
)/UP+e~kN
1 3 10 12 11 2 4 13 14 15 5 6 7 8 9

3
lSdX
O)f?U7
a
2 3 1
1 3 2
1 2 3

2
Johnny Smith
Granny Smith
1 2
2 1
