20

5
Ian Peters
Hector Long
Olivia Garvin
Rachel Arnet
Tracy Ekler
1 4 3 2 5

1
Frank Darwin
1
1
1
1
1
1
1

1
Kasey Stevens
1
1
1

3
Kasey Arnet
Ernie Irvin
Bob Stevens
3 1 2
2 1 3
3 1 2
3 2 1
3 2 1
3 1 2
1 2 3
1 2 3
1 3 2

1
Ian Peters
1
1
1
1

2
Ernie Arnet
Gary Peters
2 1
2 1
1 2
2 1
1 2
2 1
1 2

6
Chuck Norris
Dean Blanton
Hector McAfee
Frank Peters
Kasey Ekler
Rachel Owens
2 5 6 3 4 1
3 4 1 6 5 2

1
Dean Peters
1
1
1
1
1
1
1
1
1
1

7
Olivia Garvin
Ian Stevens
Lydia Long
Bob McAfee
Sonia Tucker
Penny Blanton
Hector James
7 6 4 3 5 2 1
5 6 2 7 4 3 1
1 7 3 2 5 4 6
6 5 2 3 1 7 4
2 5 3 7 6 4 1
7 1 3 6 5 4 2
5 1 3 4 7 6 2

7
Lydia Russel
Gary Queens
Ian Ekler
Ernie Norris
Kasey Darwin
Tracy Cross
Alan McAfee
5 7 6 3 2 1 4
5 2 4 3 6 7 1
1 2 6 5 7 3 4
3 5 6 4 7 2 1

9
Dean Owens
Frank McAfee
Sonia Ford
Justin Herbert
Chuck Blanton
Olivia Queens
Nora Tucker
Tracy Norris
Kasey James
4 3 2 8 7 6 9 1 5
5 9 4 2 7 8 1 3 6
6 9 2 4 7 5 8 3 1
7 6 8 4 2 5 9 3 1

1
Ian Garvin
1
1
1
1
1
1
1
1

9
Dean Queens
Ernie Long
Frank Peters
Chuck Tucker
Lydia Herbert
Kasey Ekler
Bob Ford
Gary Stevens
Nora Arnet
9 3 6 5 1 8 4 7 2
1 7 6 9 2 3 4 8 5
8 9 7 6 3 1 5 4 2
9 1 7 8 2 6 4 5 3

6
Kasey Garvin
Ian Ekler
Ernie Long
Rachel Peters
Dean Owens
Justin Norris
5 6 3 2 1 4
1 3 2 5 6 4
5 2 1 3 4 6
5 6 1 2 4 3
1 4 2 5 6 3
6 1 2 4 3 5

4
Hector Long
Quin Irvin
Sonia Norris
Tracy Peters
4 2 3 1
2 3 4 1
2 3 1 4
3 2 1 4
3 1 4 2
2 4 3 1

3
Tracy Cross
Frank Stevens
Justin Arnet
2 3 1
3 2 1
2 3 1
1 3 2
2 3 1
1 2 3
2 1 3

9
Alan Peters
Tracy Owens
Rachel James
Frank Darwin
Olivia Russel
Ernie Ford
Chuck Cross
Kasey Stevens
Lydia Irvin
9 1 7 5 2 8 4 6 3
4 9 2 8 6 1 5 3 7
2 3 5 6 9 8 1 7 4
2 1 7 6 5 3 9 4 8

3
Chuck Peters
Gary Irvin
Hector James
3 2 1
3 1 2
2 3 1
2 3 1
1 3 2
3 1 2
2 3 1

3
Justin Queens
Sonia Long
Dean Norris
3 2 1
3 1 2
3 2 1
1 2 3
2 3 1
2 3 1
3 2 1

3
Sonia Ford
Gary Queens
Dean Long
3 1 2
3 2 1
3 1 2
1 3 2
1 2 3
3 2 1
1 2 3
