21

5
Bob Ford
Kasey Kelce
Penny Owens
Ian Cross
Tracy Tucker
3 2 1 4 5
1 5 3 2 4
1 4 2 3 5
1 2 4 5 3
2 1 4 3 5
2 3 4 1 5
5 4 3 2 1
1 4 5 3 2
4 1 3 5 2
1 5 3 4 2
5 4 3 2 1
4 2 5 1 3
3 1 5 4 2

5
Ernie Long
Hector Irvin
Alan Arnet
Tracy Ekler
Ian Garvin
2 4 1 3 5
3 1 5 2 4
1 4 3 2 5
1 3 2 4 5
4 3 5 2 1
5 2 4 1 3
5 1 2 4 3
5 2 3 4 1
1 5 4 2 3

2
Bob James
Lawrence Jamison
1 2
2 1
2 1
2 1
1 2
2 1
2 1
1 2

5
Sonia Queens
Ernie McAfee
Ian Blanton
Gary Tucker
Frank Cross
4 5 3 1 2

8
Gary Kelce
Sonia Russel
Justin Ford
Dean Norris
Marie Irvin
Quin Queens
Nora Garvin
Ian McAfee
6 8 1 2 3 7 5 4
5 4 3 8 2 6 7 1
2 6 1 3 8 4 7 5
5 4 3 2 6 7 8 1
7 1 8 3 5 2 4 6
7 5 3 1 6 8 2 4
6 2 5 1 4 7 3 8
3 4 5 7 2 8 6 1
2 8 6 4 1 7 5 3

5
Penny Ford
Rachel McAfee
Quin Arnet
Tracy Ekler
Sonia Stevens
3 4 1 5 2

8
Dean Arnet
Ernie Long
Frank Peters
Alan Owens
Bob Russel
Chuck Kelce
Nora McAfee
Rachel Ford
3 2 1 5 4 8 7 6
1 5 8 6 4 3 7 2
8 1 5 3 7 4 2 6
8 7 4 2 3 5 1 6
5 7 1 8 6 3 4 2
8 5 4 7 3 1 6 2

4
Lydia Norris
Nora Ekler
Justin Owens
Frank Long
2 1 4 3
2 3 1 4
3 4 1 2

3
Alan McAfee
Chuck Stevens
Gary Kelce
1 3 2
2 1 3
2 1 3
1 3 2
3 2 1
2 1 3
3 2 1
3 1 2
2 1 3
1 3 2
1 2 3
2 3 1
2 3 1

5
Penny Norris
Gary Queens
Frank Irvin
Lydia Arnet
Alan James
3 5 4 2 1
1 4 3 2 5
4 5 3 1 2
5 4 2 3 1
3 1 5 2 4
4 3 5 2 1
2 5 1 3 4
1 4 5 2 3
1 2 3 5 4
4 1 3 2 5
2 1 4 3 5
5 4 3 2 1
3 1 4 2 5

3
Frank Darwin
Olivia Long
Kasey Cross
3 2 1
1 3 2
2 3 1
2 3 1
2 1 3
2 1 3
3 1 2
3 2 1
1 2 3
3 1 2
1 3 2

5
Chuck Kelce
Marie Blanton
Frank Long
Kasey Tucker
Hector Irvin
3 4 1 2 5
4 3 2 1 5
3 4 5 1 2
1 2 4 3 5
2 4 3 1 5
2 5 3 1 4
2 4 1 5 3

6
Hector Ekler
Dean Stevens
Kasey Garvin
Tracy Long
Penny Darwin
Lydia Owens
4 3 2 1 5 6
4 6 2 5 3 1
4 1 2 6 5 3
6 3 1 5 4 2
4 1 6 5 2 3
2 3 6 5 4 1
6 3 1 4 2 5
4 6 1 2 3 5

9
Ernie Queens
Sonia Blanton
Chuck Russel
Ian Darwin
Marie Arnet
Hector Ekler
Justin Tucker
Quin Irvin
Penny Kelce
7 9 6 8 5 3 4 1 2

3
Ernie Garvin
Chris Johnson
Jace Velaryon
2 1 3
1 3 2
2 3 1
3 1 2
3 2 1
1 2 3
2 3 1

6
Ian Kelce
Frank Darwin
Dean Tucker
Gary McAfee
Nora Garvin
Lydia Norris
1 2 5 3 4 6
5 2 1 3 6 4
1 5 3 6 4 2

8
Bob Owens
Dean Kelce
Tracy Norris
Penny Ford
Quin Arnet
Rachel Queens
Ernie Russel
Olivia McAfee
2 1 6 3 7 8 4 5
2 8 7 5 6 1 3 4
1 2 4 7 6 3 8 5
4 6 1 2 7 5 8 3
7 4 6 2 1 3 5 8
4 2 3 7 5 6 1 8
1 6 3 4 8 2 5 7
4 7 1 3 2 6 8 5
2 3 5 8 7 1 4 6
4 3 2 7 6 5 8 1
3 8 2 6 1 7 5 4
7 3 8 4 5 2 6 1
7 6 5 3 1 8 4 2

4
Ian Cross
Olivia Herbert
Bob Tucker
Justin Norris
2 4 1 3
3 2 4 1

1
Nora Russel
1
1
1
1
1
1
1

7
Bob McAfee
Penny Long
Lydia Queens
Frank Herbert
Quin Arnet
Dean Russel
Sonia Stevens
3 7 6 1 2 4 5
3 2 4 1 7 6 5

5
Sonia Ekler
Tracy Owens
Gary Russel
Kasey Queens
Hector Darwin
3 1 4 5 2
3 2 5 1 4
3 2 4 1 5
