20

1
Gary Darwin
1
1
1
1
1
1
1
1
1
1
1
1

3
Bob Ford
Quin Herbert
Lydia Irvin
1 2 3
3 2 1

7
Marie Ford
Bob Tucker
Rachel Herbert
Lydia Garvin
Olivia Stevens
Penny Norris
Nora Blanton
6 1 5 2 3 7 4
3 5 6 4 1 2 7
1 4 3 2 5 7 6
5 6 4 3 1 2 7
7 1 3 6 4 2 5
3 2 1 7 6 5 4
2 6 3 5 7 4 1
5 6 1 3 2 4 7
7 4 2 5 1 3 6
7 3 2 4 6 5 1
2 6 1 7 5 4 3
6 1 2 5 3 7 4
5 4 2 7 1 6 3

2
Gary Kelce
Penny Cross
2 1
1 2
1 2

6
Frank Peters
Ian James
Penny Arnet
Tracy Russel
Olivia Blanton
Ernie Queens
2 4 1 6 3 5
6 3 4 1 2 5
1 2 4 3 5 6
1 6 4 5 2 3

1
Sonia Ford
1
1
1
1
1
1
1
1
1
1
1
1
1

1
Quin Darwin
1
1

9
Chuck Ekler
Tracy Darwin
Alan Stevens
Rachel McAfee
Hector Tucker
Marie Owens
Frank Peters
Gary Norris
Penny James
8 6 1 5 3 9 7 4 2
7 1 9 3 6 8 4 2 5
7 3 1 6 8 5 2 4 9
9 2 1 6 8 3 7 5 4
5 2 6 1 3 8 9 4 7
9 3 1 4 5 2 7 8 6
8 6 7 5 9 2 3 1 4
8 4 3 5 1 6 2 7 9

10
Gary Ford
Quin Tucker
Chuck Herbert
Penny Long
Marie James
Kasey Ekler
Olivia Darwin
Bob Arnet
Sonia Russel
Ernie Owens
1 10 9 4 7 6 8 5 3 2
8 5 2 6 4 3 9 7 10 1
7 2 8 3 10 4 9 6 1 5
1 6 7 3 8 10 5 2 4 9
6 3 2 1 9 10 7 5 8 4
4 5 2 6 10 3 7 9 1 8
10 5 8 6 3 2 4 7 1 9
3 2 10 8 1 7 4 9 5 6

4
Ernie McAfee
Rachel Queens
Marie Kelce
Penny Ekler
4 3 1 2
2 3 1 4

7
Tracy Garvin
Marie Ford
Justin Ekler
Quin Arnet
Alan Kelce
Hector Cross
Frank Herbert
1 4 5 7 6 3 2

3
Rachel Darwin
Kasey McAfee
Hector Cross
3 2 1
3 2 1
2 3 1
2 3 1
2 3 1
3 2 1
3 2 1
3 1 2
2 1 3
2 3 1
1 3 2
1 2 3

9
Ian Irvin
Marie Ford
Olivia Queens
Alan Cross
Chuck McAfee
Bob Herbert
Hector Stevens
Sonia Owens
Ernie Arnet
9 2 5 8 1 3 7 4 6
2 7 1 9 5 8 6 3 4
4 7 3 8 6 1 2 9 5
4 8 6 1 2 9 3 7 5
3 5 9 6 2 8 7 4 1
6 7 8 2 4 3 5 1 9
5 9 1 8 7 2 3 6 4

7
Dean Kelce
Ian Darwin
Olivia James
Quin Queens
Nora Stevens
Justin McAfee
Gary Garvin
2 5 3 4 7 1 6
2 5 4 3 7 1 6
1 3 7 2 6 5 4
1 6 7 2 3 4 5
4 6 1 7 2 3 5
2 5 7 1 6 4 3
3 4 5 6 2 7 1

8
Nora Kelce
Rachel Blanton
Ernie Cross
Olivia Long
Lydia Ford
Ian Tucker
Frank James
Alan Norris
3 6 2 5 8 4 7 1
4 8 5 2 7 1 3 6
6 1 5 7 8 3 4 2
5 1 4 6 3 2 8 7
8 7 6 5 4 2 1 3
3 5 1 8 4 2 6 7

2
Justin Peters
Gary Irvin
2 1
1 2
2 1
2 1
1 2
1 2
2 1
1 2
2 1
2 1
1 2
1 2
2 1
2 1
1 2
1 2

9
Ernie Norris
Ian Long
Chuck McAfee
Quin Garvin
Olivia Arnet
Sonia Queens
Justin Kelce
Kasey Darwin
Alan Stevens
6 7 5 8 2 9 3 4 1
6 7 9 8 2 5 1 4 3
6 9 8 4 2 5 1 3 7
3 5 1 6 8 2 7 9 4
9 1 4 8 2 7 6 5 3
9 1 7 4 3 2 6 8 5
5 6 2 7 8 9 4 3 1
4 9 6 2 8 1 5 3 7
2 5 7 3 9 8 4 6 1
7 9 3 5 8 4 2 6 1
8 5 3 1 2 9 4 7 6

1
Lydia Peters
1
1
1
1
1
1
1
1

1
Nora Tucker
1
1
1

10
Gary Queens
Justin Blanton
Marie Herbert
Nora Ford
Quin Ekler
Alan Irvin
Rachel Darwin
Penny Russel
Chuck Tucker
Kasey Stevens
4 10 9 1 5 7 3 6 2 8
2 7 4 9 3 8 5 6 1 10
10 3 4 8 9 7 6 1 2 5
10 1 8 7 3 9 5 4 6 2
9 3 10 5 4 8 6 2 7 1
4 10 3 6 2 5 7 1 9 8
