23

5
?9A.
+aOU!/dFbX
u7xfaq2a
{iQU%Jp^
w*Qt@HcY 
2 5 1 4 3

11
@9jC\CreM
'sJ
%;d8a7
pYisCkO
@'&~GAm[Ij
ZT
\f
|`
5
"
MR7*`9tEm
1 11 4 2 10 8 3 5 6 7 9

4
&_)`
1$G f4/
O%b$b=J
@$0$Mj
1 2 3 4
1 4 3 2
1 3 4 2

11
'3[#7!2}f`
1E+ ~;
nW}DYJ!d
A-
Te9oS
>$2)
dP
E{V1
eKPL&6o~!
 8OZ57w(A
#XU!f,
4 2 5 11 6 10 8 1 9 3 7

8
#1Q
0_
lu[3?%U.
BbmO+hin
-""7cw53k
5
~81z[X6
O
2 6 3 7 5 4 8 1
2 1 4 5 3 8 7 6

12
)a._^9\
Ci
4%F&"&XJ
cK
;;J=T
V"f[z["
~(:y^
td0^P
%
(0
Q!C)
fCx?s&7}FE
12 2 11 10 8 1 6 3 4 7 5 9
2 10 4 11 12 1 3 6 8 9 5 7

9
7zouMO3/!b
/Wkc:):
'AFTWCT
=;T>
-LuA
}}m
A=
ah!fpu\
$$PCGZitp
1 3 4 5 6 2 7 9 8

13
^hUp
3xC{T]03`Q
mY/7>M
?\|C7sT*(
C
>"(d->5
}}|d%twgy{
pB_Z@5
*B,o956
>(89)>66
8&h4u
dcw\2
.^i/S
1 10 12 11 13 3 4 2 5 9 8 7 6
2 1 3 5 4 12 10 11 7 13 6 9 8

19
Q,J;b
0aR/Bpy
`
f
 
f9
Nu;
"
r
IQj5
DJ8y.i
LDJqD
JK
\oKY$kUnL
R_}0|!#lth
694{;[UC2^
*3'0y7`
9hQlPm
\1i[I\wa
1 2 10 4 15 3 6 11 13 5 12 9 14 18 19 7 17 16 8

13
Kem%AJ# K
%w)U=(
ce
yq
'EBpo
B,Jc_tK$
'XHeA
"
~&GZ
w?d:
]bv
]V4Q9Y
4/MB
10 2 3 5 13 1 12 11 4 7 9 8 6

3
P)>c2
]yv3-6d%Bn
[bJ4B
3 1 2

12
/O
L:!JZ!%#L
wD&&;m/ bd
t
=i*tF
wpq7r7X
U_w
3
[y0
koPoS4D
kv
:5cg!s&,
1 12 3 8 6 10 2 7 5 11 4 9

9
4b
_^!w{
!A7
,|6>hQ
=w0N_xEZ7
Aek
g8;m
O690ntC@
%'b9R?5
2 1 3 5 4 6 7 9 8
2 1 3 6 5 4 7 9 8

6
Y)(L)=
G
d!
c[^
1
4]
2 1 3 6 4 5

18
8"
Z{!vdlY
a=)mS!zM5E
UIx
ELUTOZ+~
`:!
\~*`hrJ6B
KO8,
9J@P8"|cX-
`!
?
_
-wXAmQ
U;S_X-|
Xe
Aa
54
#D
4 15 5 1 12 2 6 10 8 16 11 3 18 7 9 17 14 13

5
u@ZQ
 a/VQ
6
q80YD:
Kq/J
2 3 5 4 1
1 4 3 5 2
2 4 1 5 3
3 1 2 5 4

6
^~`h1k-H2R
h-<
:PFO
c
"jA
<
4 1 3 2 6 5
1 2 4 3 5 6

3
fVsL}{v4+
W(rAw
T)xB
1 2 3
2 3 1

4
fC)
rHYc'8X]X
1onldSc
'
1 2 3 4

17
Z)z>
BC
XK~}n
:2*h
<z^0PJJr<
@"`B
rs?B-NrOz
g!wn!FF
(
n%f
<jZt
\1+h?6=f
ezINl?!
^$K)B^<J
n3BP
:>/''/0
AM36
1 2 10 6 3 12 5 4 11 13 8 14 16 9 7 15 17

3
N[B]!sZh
<'G
$#3
1 3 2

7
qK
O]
aG1b3
eX@#s3>
tnZ3|#x>
F
~8}sN
1 5 6 7 2 4 3

3
(#br~Zi5
x4g4'[Nh
c-
1 2 3
3 2 1
3 1 2
